Lab #3: COVID-19
…
a flextable object.
col_keys: `Date`, `County`, `Cases` 
header has 1 row(s) 
body has 5 row(s) 
original dataset sample: 
        Date    County Cases
1 2022-02-01   El Paso   630
2 2022-02-01  Arapahoe   401
3 2022-02-01    Denver   389
4 2022-02-01     Adams   326
5 2022-02-01 Jefferson   291

print(safe_counties)

# A tibble: 54 × 3
   County      Total_New_Cases Cases_per_100k
   <chr>                 <dbl>          <dbl>
 1 Alamosa                 596              0
 2 Archuleta               269              0
 3 Baca                     85              0
 4 Bent                    142              0
 5 Broomfield             1187              0
 6 Chaffee                 335              0
 7 Cheyenne                 25              0
 8 Clear Creek             130              0
 9 Conejos                 239              0
10 Costilla                 65              0
# ℹ 44 more rows
…
